klingler_backinjury_project
…
                 [,1]
sensitivity 0.6736111
specificity 0.7000000
cutoff      0.6657181

trainpredrf = predict(df4_fit, train)
trainpredrf

# A tibble: 214 × 1
   .pred_class
   <fct>      
 1 Yes        
 2 Yes        
 3 No         
 4 No         
 5 Yes        
 6 No         
 7 Yes        
 8 Yes        
 9 Yes        
10 Yes        
# ℹ 204 more rows
…
